%YAML 1.1
%TAG !u! tag:unity3d.com,2011:
--- !u!114 &11400000
MonoBehaviour:
  m_ObjectHideFlags: 0
  m_CorrespondingSourceObject: {fileID: 0}
  m_PrefabInstance: {fileID: 0}
  m_PrefabAsset: {fileID: 0}
  m_GameObject: {fileID: 0}
  m_Enabled: 1
  m_EditorHideFlags: 0
  m_Script: {fileID: 11500000, guid: 465dcd162782e9b48993522845509d1f, type: 3}
  m_Name: Zombie
  m_EditorClassIdentifier: 
  id: 8
  Name: Zombie
  img:
  - {fileID: 21300000, guid: 854334d3fcf7340499b7a9dbe55d4662, type: 3}
  - {fileID: 21300000, guid: b26e07498ce3f5a4a8d5956b94b6c322, type: 3}
  - {fileID: 21300000, guid: 5eed9f174f189d544ac4108808df1cd3, type: 3}
  GameObject: {fileID: 0}
  hpMax: 3
  currentHp: 3
  damage: 1
  atackSpeed: 1
  moveSpeed: 1
  range: 0
  abilitieCost: 2
  jewelCost: 1
  cardLevel: 0
  price: 0
  hero: 0
  unlock: 0
  levelRequest: 0
  levelInGame: 0
  enemy: 0
