%YAML 1.1
%TAG !u! tag:unity3d.com,2011:
--- !u!114 &11400000
MonoBehaviour:
  m_ObjectHideFlags: 0
  m_CorrespondingSourceObject: {fileID: 0}
  m_PrefabInstance: {fileID: 0}
  m_PrefabAsset: {fileID: 0}
  m_GameObject: {fileID: 0}
  m_Enabled: 1
  m_EditorHideFlags: 0
  m_Script: {fileID: 11500000, guid: 465dcd162782e9b48993522845509d1f, type: 3}
  m_Name: Warrior
  m_EditorClassIdentifier: 
  id: 6
  Name: Warrior
  img:
  - {fileID: 21300000, guid: 9d198bea0d7fa034c861c575c2e6e1b7, type: 3}
  - {fileID: 21300000, guid: 9992036467cfcec48bad96c511955f0b, type: 3}
  - {fileID: 21300000, guid: 1a9c75fd4660baa499d57150cb6700f6, type: 3}
  GameObject: {fileID: 0}
  hpMax: 7
  currentHp: 7
  damage: 1
  atackSpeed: 0.7
  moveSpeed: 0.8
  range: 1
  abilitieCost: 5
  jewelCost: 1
  cardLevel: 1
  price: 10
  hero: 0
  unlock: 0
  levelRequest: 0
  levelInGame: 0
  enemy: 1
