%YAML 1.1
%TAG !u! tag:unity3d.com,2011:
--- !u!114 &11400000
MonoBehaviour:
  m_ObjectHideFlags: 0
  m_CorrespondingSourceObject: {fileID: 0}
  m_PrefabInstance: {fileID: 0}
  m_PrefabAsset: {fileID: 0}
  m_GameObject: {fileID: 0}
  m_Enabled: 1
  m_EditorHideFlags: 0
  m_Script: {fileID: 11500000, guid: 465dcd162782e9b48993522845509d1f, type: 3}
  m_Name: Assassin
  m_EditorClassIdentifier: 
  id: 2
  Name: 
  img:
  - {fileID: 21300000, guid: 654bc7581388db7408ca9501a6504ef1, type: 3}
  - {fileID: 21300000, guid: dbff2d598ad909943b6782fc89d8e13f, type: 3}
  - {fileID: 21300000, guid: 4ec0d9939fc3fe5499ce3bd77643a7fc, type: 3}
  GameObject: {fileID: 0}
  hpMax: 5
  currentHp: 5
  damage: 1
  atackSpeed: 2
  moveSpeed: 3
  range: 1
  abilitieCost: 3
  jewelCost: 4
  cardLevel: 0
  price: 0
  hero: 0
  unlock: 0
  levelRequest: 0
  levelInGame: 0
  enemy: 1
